<?xml version="1.0" encoding="utf-8"?>
<!-- Generator: Adobe Illustrator 25.2.1, SVG Export Plug-In . SVG Version: 6.00 Build 0)  -->
<svg version="1.1" xmlns="http://www.w3.org/2000/svg" xmlns:xlink="http://www.w3.org/1999/xlink" x="0px" y="0px"
	 viewBox="0 0 50 50" style="enable-background:new 0 0 50 50;" xml:space="preserve">
<style type="text/css">
	.st0{display:none;}
	.st1{display:inline;fill:#006838;stroke:#000000;stroke-miterlimit:10;}
	.st2{fill:none;}
	.st3{fill:#FFFFFF;}
	.st4{display:inline;fill:#FFFFFF;}
	.st5{font-family:'Constantia';}
	.st6{font-size:23.7037px;}
</style>
<g id="Layer_2" class="st0">
</g>
<g id="Layer_4" class="st0">
	<rect x="-2.2" y="-3.4" class="st1" width="59.5" height="60.5"/>
</g>
<g id="Layer_1">
	<g id="Text_8_">
		<g>
			<path id="SVGID_x5F_1_x5F_" class="st2" d="M25.7,42.7c-10.1,0-18.3-8.3-18.3-18.5S15.6,5.8,25.7,5.8s18.3,8.3,18.3,18.5
				S35.7,42.7,25.7,42.7z"/>
			<text>			<textPath  xlink:href="#SVGID_x5F_1_x5F_" startOffset="12406.8584%">
<tspan  class="st3" style="font-family:'EBGaramond-SemiBold'; font-size:3.2228px;">WE’VE   BREWED   THE   BEST   TEA   JUST    FOR  YOU    WE’VE BREWED THE BEST FOR </tspan><tspan  class="st3" style="font-family:'EBGaramond-SemiBold'; font-size:3.2228px; letter-spacing:-23.3;">YOU</tspan>			</textPath>
</text>
		</g>
		<rect x="52.1" y="41.6" class="st2" width="0.2" height="0"/>
	</g>
	<g id="Graphic_elements_4_">
		<g>
			<path class="st3" d="M25.7,2.1c12.1,0,22,9.9,22,22c0,12.1-9.9,22-22,22s-22-9.9-22-22C3.7,12,13.6,2.1,25.7,2.1 M25.7,1.7
				C13.4,1.7,3.3,11.7,3.3,24.1c0,12.4,10.1,22.5,22.5,22.5s22.5-10.1,22.5-22.5C48.2,11.7,38.1,1.7,25.7,1.7L25.7,1.7z"/>
		</g>
	</g>
	<rect x="52.9" y="48.8" class="st2" width="14" height="0.8"/>
	<g id="Text_3_">
		<g>
		</g>
		<rect x="64.9" y="28.6" class="st2" width="0.2" height="0"/>
	</g>
</g>
<g id="Layer_3" class="st0">
	<text transform="matrix(0.9785 0 0 1 14.2513 32.683)" class="st4 st5 st6">M</text>
</g>
</svg>
